%YAML 1.1
%TAG !u! tag:unity3d.com,2011:
--- !u!225 &3967567501043612293
CanvasGroup:
  m_ObjectHideFlags: 0
  m_CorrespondingSourceObject: {fileID: 0}
  m_PrefabInstance: {fileID: 0}
  m_PrefabAsset: {fileID: 0}
  m_GameObject: {fileID: 3680446860849015946}
  m_Enabled: 1
  m_Alpha: 1
  m_Interactable: 1
  m_BlocksRaycasts: 1
  m_IgnoreParentGroups: 0
--- !u!1 &3967567501155123700
GameObject:
  m_ObjectHideFlags: 0
  m_CorrespondingSourceObject: {fileID: 0}
  m_PrefabInstance: {fileID: 0}
  m_PrefabAsset: {fileID: 0}
  serializedVersion: 6
  m_Component:
  - component: {fileID: 3967567501155123703}
  - component: {fileID: 3967567501155123702}
  m_Layer: 0
  m_Name: Bottom Buttons
  m_TagString: Untagged
  m_Icon: {fileID: 0}
  m_NavMeshLayer: 0
  m_StaticEditorFlags: 0
  m_IsActive: 1
--- !u!224 &3967567501155123703
RectTransform:
  m_ObjectHideFlags: 0
  m_CorrespondingSourceObject: {fileID: 0}
  m_PrefabInstance: {fileID: 0}
  m_PrefabAsset: {fileID: 0}
  m_GameObject: {fileID: 3967567501155123700}
  m_LocalRotation: {x: 0, y: 0, z: 0, w: 1}
  m_LocalPosition: {x: 0, y: 0, z: 0}
  m_LocalScale: {x: 1, y: 1, z: 1}
  m_Children:
  - {fileID: 971929118503205498}
  - {fileID: 295354345816143346}
  - {fileID: 971929117651730647}
  m_Father: {fileID: 2275402172963956873}
  m_RootOrder: 0
  m_LocalEulerAnglesHint: {x: 0, y: 0, z: 0}
  m_AnchorMin: {x: 0, y: 0}
  m_AnchorMax: {x: 1, y: 1}
  m_AnchoredPosition: {x: 0, y: 0}
  m_SizeDelta: {x: 0, y: 0}
  m_Pivot: {x: 0.5, y: 0.5}
--- !u!114 &3967567501155123702
MonoBehaviour:
  m_ObjectHideFlags: 0
  m_CorrespondingSourceObject: {fileID: 0}
  m_PrefabInstance: {fileID: 0}
  m_PrefabAsset: {fileID: 0}
  m_GameObject: {fileID: 3967567501155123700}
  m_Enabled: 1
  m_EditorHideFlags: 0
  m_Script: {fileID: -405508275, guid: f70555f144d8491a825f0804e09c671c, type: 3}
  m_Name: 
  m_EditorClassIdentifier: 
  m_Padding:
    m_Left: 0
    m_Right: 0
    m_Top: 0
    m_Bottom: 0
  m_ChildAlignment: 4
  m_Spacing: 48
  m_ChildForceExpandWidth: 0
  m_ChildForceExpandHeight: 0
  m_ChildControlWidth: 0
  m_ChildControlHeight: 0
  m_ChildScaleWidth: 0
  m_ChildScaleHeight: 0
--- !u!1 &3967567501181032616
GameObject:
  m_ObjectHideFlags: 0
  m_CorrespondingSourceObject: {fileID: 0}
  m_PrefabInstance: {fileID: 0}
  m_PrefabAsset: {fileID: 0}
  serializedVersion: 6
  m_Component:
  - component: {fileID: 3967567501181032619}
  - component: {fileID: 3967567501181032608}
  - component: {fileID: 3967567501181032609}
  - component: {fileID: 3967567501181032622}
  - component: {fileID: 3967567501181032623}
  - component: {fileID: 3967567501181032620}
  - component: {fileID: 3967567501181032621}
  - component: {fileID: 3967567501181032618}
  m_Layer: 0
  m_Name: View - 17
  m_TagString: Untagged
  m_Icon: {fileID: 0}
  m_NavMeshLayer: 0
  m_StaticEditorFlags: 0
  m_IsActive: 1
--- !u!224 &3967567501181032619
RectTransform:
  m_ObjectHideFlags: 0
  m_CorrespondingSourceObject: {fileID: 0}
  m_PrefabInstance: {fileID: 0}
  m_PrefabAsset: {fileID: 0}
  m_GameObject: {fileID: 3967567501181032616}
  m_LocalRotation: {x: 0, y: 0, z: 0, w: 1}
  m_LocalPosition: {x: 0, y: 0, z: 0}
  m_LocalScale: {x: 1, y: 1, z: 1}
  m_Children:
  - {fileID: 7893006982683899547}
  - {fileID: 3770806494150277584}
  m_Father: {fileID: 0}
  m_RootOrder: 0
  m_LocalEulerAnglesHint: {x: 0, y: 0, z: 0}
  m_AnchorMin: {x: 0, y: 0}
  m_AnchorMax: {x: 1, y: 1}
  m_AnchoredPosition: {x: 0, y: 0}
  m_SizeDelta: {x: 0, y: 0}
  m_Pivot: {x: 0.5, y: 0.5}
--- !u!223 &3967567501181032608
Canvas:
  m_ObjectHideFlags: 0
  m_CorrespondingSourceObject: {fileID: 0}
  m_PrefabInstance: {fileID: 0}
  m_PrefabAsset: {fileID: 0}
  m_GameObject: {fileID: 3967567501181032616}
  m_Enabled: 1
  serializedVersion: 3
  m_RenderMode: 2
  m_Camera: {fileID: 0}
  m_PlaneDistance: 100
  m_PixelPerfect: 0
  m_ReceivesEvents: 1
  m_OverrideSorting: 0
  m_OverridePixelPerfect: 0
  m_SortingBucketNormalizedSize: 0
  m_AdditionalShaderChannelsFlag: 25
  m_SortingLayerID: 0
  m_SortingOrder: 0
  m_TargetDisplay: 0
--- !u!114 &3967567501181032609
MonoBehaviour:
  m_ObjectHideFlags: 0
  m_CorrespondingSourceObject: {fileID: 0}
  m_PrefabInstance: {fileID: 0}
  m_PrefabAsset: {fileID: 0}
  m_GameObject: {fileID: 3967567501181032616}
  m_Enabled: 1
  m_EditorHideFlags: 0
  m_Script: {fileID: 1301386320, guid: f70555f144d8491a825f0804e09c671c, type: 3}
  m_Name: 
  m_EditorClassIdentifier: 
  m_IgnoreReversedGraphics: 1
  m_BlockingObjects: 0
  m_BlockingMask:
    serializedVersion: 2
    m_Bits: 4294967295
--- !u!225 &3967567501181032622
CanvasGroup:
  m_ObjectHideFlags: 0
  m_CorrespondingSourceObject: {fileID: 0}
  m_PrefabInstance: {fileID: 0}
  m_PrefabAsset: {fileID: 0}
  m_GameObject: {fileID: 3967567501181032616}
  m_Enabled: 1
  m_Alpha: 1
  m_Interactable: 1
  m_BlocksRaycasts: 1
  m_IgnoreParentGroups: 0
--- !u!114 &3967567501181032623
MonoBehaviour:
  m_ObjectHideFlags: 0
  m_CorrespondingSourceObject: {fileID: 0}
  m_PrefabInstance: {fileID: 0}
  m_PrefabAsset: {fileID: 0}
  m_GameObject: {fileID: 3967567501181032616}
  m_Enabled: 1
  m_EditorHideFlags: 0
  m_Script: {fileID: 11500000, guid: 314affd16bceddb4c99fbaa07de901d9, type: 3}
  m_Name: 
  m_EditorClassIdentifier: 
  DebugMode: 0
  StartPosition: {x: 0, y: 0, z: 0}
  StartRotation: {x: -0, y: 0, z: 0}
  StartScale: {x: 1, y: 1, z: 1}
  StartAlpha: 1
  AutoHideAfterShow: 0
  AutoHideAfterShowDelay: 3
  AutoSelectButtonAfterShow: 0
  BehaviorAtStart: 1
  CustomStartAnchoredPosition: {x: 0, y: 0, z: 0}
  DeselectAnyButtonSelectedOnHide: 0
  DeselectAnyButtonSelectedOnShow: 0
  DisableCanvasWhenHidden: 1
  DisableGameObjectWhenHidden: 1
  DisableGraphicRaycasterWhenHidden: 1
  HideBehavior:
    Animation:
      AnimationType: 2
      Move:
        AnimationType: 2
        Enabled: 1
        From: {x: 0, y: 0, z: 0}
        To: {x: 0, y: 0, z: 0}
        By: {x: 0, y: 0, z: 0}
        UseCustomFromAndTo: 0
        Vibrato: 10
        Elasticity: 1
        NumberOfLoops: -1
        LoopType: 1
        Direction: 11
        CustomPosition: {x: 0, y: 0, z: 0}
        EaseType: 0
        Ease: 1
        AnimationCurve:
          serializedVersion: 2
          m_Curve: []
          m_PreInfinity: 2
          m_PostInfinity: 2
          m_RotationOrder: 4
        StartDelay: 0
        Duration: 0.3
      Rotate:
        AnimationType: 2
        Enabled: 0
        From: {x: 0, y: 0, z: 0}
        To: {x: 0, y: 0, z: 0}
        By: {x: 0, y: 0, z: 0}
        UseCustomFromAndTo: 0
        Vibrato: 10
        Elasticity: 1
        NumberOfLoops: -1
        LoopType: 1
        RotateMode: 1
        EaseType: 0
        Ease: 1
        AnimationCurve:
          serializedVersion: 2
          m_Curve: []
          m_PreInfinity: 2
          m_PostInfinity: 2
          m_RotationOrder: 4
        StartDelay: 0
        Duration: 1
      Scale:
        AnimationType: 2
        Enabled: 1
        From: {x: 0, y: 0, z: 0}
        To: {x: 0, y: 0, z: 0}
        By: {x: 0, y: 0, z: 0}
        UseCustomFromAndTo: 0
        Vibrato: 10
        Elasticity: 1
        NumberOfLoops: -1
        LoopType: 1
        EaseType: 0
        Ease: 1
        AnimationCurve:
          serializedVersion: 2
          m_Curve: []
          m_PreInfinity: 2
          m_PostInfinity: 2
          m_RotationOrder: 4
        StartDelay: 0
        Duration: 0.2
      Fade:
        AnimationType: 2
        Enabled: 0
        From: 0
        To: 0
        By: 0.5
        UseCustomFromAndTo: 0
        NumberOfLoops: -1
        LoopType: 1
        EaseType: 0
        Ease: 1
        AnimationCurve:
          serializedVersion: 2
          m_Curve: []
          m_PreInfinity: 2
          m_PostInfinity: 2
          m_RotationOrder: 4
        StartDelay: 0
        Duration: 0.2
    AutoStartLoopAnimation: 1
    LoadSelectedPresetAtRuntime: 0
    InstantAnimation: 0
    OnFinished:
      AnimatorEvents: []
      Effect:
        AutoSort: 1
        Behavior: 0
        CustomSortingOrder: 0
        SortingSteps: 1
        ParticleSystem: {fileID: 0}
        StopBehavior: 1
        CustomSortingLayer: Default
      Event:
        m_PersistentCalls:
          m_Calls: []
        m_TypeName: UnityEngine.Events.UnityEvent, UnityEngine.CoreModule, Version=0.0.0.0,
          Culture=neutral, PublicKeyToken=null
      GameEvents: []
      SoundData:
        SoundSource: 0
        DatabaseName: General
        SoundName: No Sound
        AudioClip: {fileID: 0}
        OutputAudioMixerGroup: {fileID: 0}
    OnStart:
      AnimatorEvents: []
      Effect:
        AutoSort: 1
        Behavior: 0
        CustomSortingOrder: 0
        SortingSteps: 1
        ParticleSystem: {fileID: 0}
        StopBehavior: 1
        CustomSortingLayer: Default
      Event:
        m_PersistentCalls:
          m_Calls: []
        m_TypeName: UnityEngine.Events.UnityEvent, UnityEngine.CoreModule, Version=0.0.0.0,
          Culture=neutral, PublicKeyToken=null
      GameEvents: []
      SoundData:
        SoundSource: 0
        DatabaseName: General
        SoundName: No Sound
        AudioClip: {fileID: 0}
        OutputAudioMixerGroup: {fileID: 0}
    PresetCategory: Uncategorized
    PresetName: Default
  HideProgressor: {fileID: 3967567501181032618}
  LoopBehavior:
    Animation:
      AnimationType: 3
      Move:
        AnimationType: 3
        Enabled: 0
        From: {x: 0, y: 0, z: 0}
        To: {x: 0, y: 0, z: 0}
        By: {x: 0, y: 0, z: 0}
        UseCustomFromAndTo: 0
        Vibrato: 10
        Elasticity: 1
        NumberOfLoops: -1
        LoopType: 1
        Direction: 0
        CustomPosition: {x: 0, y: 0, z: 0}
        EaseType: 0
        Ease: 1
        AnimationCurve:
          serializedVersion: 2
          m_Curve: []
          m_PreInfinity: 2
          m_PostInfinity: 2
          m_RotationOrder: 4
        StartDelay: 0
        Duration: 1
      Rotate:
        AnimationType: 3
        Enabled: 0
        From: {x: 0, y: 0, z: 0}
        To: {x: 0, y: 0, z: 0}
        By: {x: 0, y: 0, z: 0}
        UseCustomFromAndTo: 0
        Vibrato: 10
        Elasticity: 1
        NumberOfLoops: -1
        LoopType: 1
        RotateMode: 1
        EaseType: 0
        Ease: 1
        AnimationCurve:
          serializedVersion: 2
          m_Curve: []
          m_PreInfinity: 2
          m_PostInfinity: 2
          m_RotationOrder: 4
        StartDelay: 0
        Duration: 1
      Scale:
        AnimationType: 3
        Enabled: 0
        From: {x: 0, y: 0, z: 0}
        To: {x: 0, y: 0, z: 0}
        By: {x: 0, y: 0, z: 0}
        UseCustomFromAndTo: 0
        Vibrato: 10
        Elasticity: 1
        NumberOfLoops: -1
        LoopType: 1
        EaseType: 0
        Ease: 1
        AnimationCurve:
          serializedVersion: 2
          m_Curve: []
          m_PreInfinity: 2
          m_PostInfinity: 2
          m_RotationOrder: 4
        StartDelay: 0
        Duration: 1
      Fade:
        AnimationType: 3
        Enabled: 0
        From: 0
        To: 0
        By: 0.5
        UseCustomFromAndTo: 0
        NumberOfLoops: -1
        LoopType: 1
        EaseType: 0
        Ease: 1
        AnimationCurve:
          serializedVersion: 2
          m_Curve: []
          m_PreInfinity: 2
          m_PostInfinity: 2
          m_RotationOrder: 4
        StartDelay: 0
        Duration: 1
    AutoStartLoopAnimation: 1
    LoadSelectedPresetAtRuntime: 0
    InstantAnimation: 0
    OnFinished:
      AnimatorEvents: []
      Effect:
        AutoSort: 1
        Behavior: 0
        CustomSortingOrder: 0
        SortingSteps: 1
        ParticleSystem: {fileID: 0}
        StopBehavior: 1
        CustomSortingLayer: Default
      Event:
        m_PersistentCalls:
          m_Calls: []
        m_TypeName: UnityEngine.Events.UnityEvent, UnityEngine.CoreModule, Version=0.0.0.0,
          Culture=neutral, PublicKeyToken=null
      GameEvents: []
      SoundData:
        SoundSource: 0
        DatabaseName: General
        SoundName: No Sound
        AudioClip: {fileID: 0}
        OutputAudioMixerGroup: {fileID: 0}
    OnStart:
      AnimatorEvents: []
      Effect:
        AutoSort: 1
        Behavior: 0
        CustomSortingOrder: 0
        SortingSteps: 1
        ParticleSystem: {fileID: 0}
        StopBehavior: 1
        CustomSortingLayer: Default
      Event:
        m_PersistentCalls:
          m_Calls: []
        m_TypeName: UnityEngine.Events.UnityEvent, UnityEngine.CoreModule, Version=0.0.0.0,
          Culture=neutral, PublicKeyToken=null
      GameEvents: []
      SoundData:
        SoundSource: 0
        DatabaseName: General
        SoundName: No Sound
        AudioClip: {fileID: 0}
        OutputAudioMixerGroup: {fileID: 0}
    PresetCategory: Uncategorized
    PresetName: Default
  OnInverseVisibilityChanged:
    m_PersistentCalls:
      m_Calls: []
    m_TypeName: Doozy.Engine.Progress.ProgressEvent, Assembly-CSharp, Version=0.0.0.0,
      Culture=neutral, PublicKeyToken=null
  OnVisibilityChanged:
    m_PersistentCalls:
      m_Calls: []
    m_TypeName: Doozy.Engine.Progress.ProgressEvent, Assembly-CSharp, Version=0.0.0.0,
      Culture=neutral, PublicKeyToken=null
  SelectedButton: {fileID: 0}
  ShowBehavior:
    Animation:
      AnimationType: 1
      Move:
        AnimationType: 1
        Enabled: 1
        From: {x: 0, y: 0, z: 0}
        To: {x: 0, y: 0, z: 0}
        By: {x: 0, y: 0, z: 0}
        UseCustomFromAndTo: 0
        Vibrato: 10
        Elasticity: 1
        NumberOfLoops: -1
        LoopType: 1
        Direction: 2
        CustomPosition: {x: 0, y: 0, z: 0}
        EaseType: 0
        Ease: 1
        AnimationCurve:
          serializedVersion: 2
          m_Curve: []
          m_PreInfinity: 2
          m_PostInfinity: 2
          m_RotationOrder: 4
        StartDelay: 0
        Duration: 0.3
      Rotate:
        AnimationType: 1
        Enabled: 0
        From: {x: 0, y: 0, z: 0}
        To: {x: 0, y: 0, z: 0}
        By: {x: 0, y: 0, z: 0}
        UseCustomFromAndTo: 0
        Vibrato: 10
        Elasticity: 1
        NumberOfLoops: -1
        LoopType: 1
        RotateMode: 1
        EaseType: 0
        Ease: 1
        AnimationCurve:
          serializedVersion: 2
          m_Curve: []
          m_PreInfinity: 2
          m_PostInfinity: 2
          m_RotationOrder: 4
        StartDelay: 0
        Duration: 1
      Scale:
        AnimationType: 1
        Enabled: 1
        From: {x: 0, y: 0, z: 0}
        To: {x: 0, y: 0, z: 0}
        By: {x: 0, y: 0, z: 0}
        UseCustomFromAndTo: 0
        Vibrato: 10
        Elasticity: 1
        NumberOfLoops: -1
        LoopType: 1
        EaseType: 0
        Ease: 1
        AnimationCurve:
          serializedVersion: 2
          m_Curve: []
          m_PreInfinity: 2
          m_PostInfinity: 2
          m_RotationOrder: 4
        StartDelay: 0
        Duration: 0.2
      Fade:
        AnimationType: 1
        Enabled: 0
        From: 0
        To: 0
        By: 0.5
        UseCustomFromAndTo: 0
        NumberOfLoops: -1
        LoopType: 1
        EaseType: 0
        Ease: 1
        AnimationCurve:
          serializedVersion: 2
          m_Curve: []
          m_PreInfinity: 2
          m_PostInfinity: 2
          m_RotationOrder: 4
        StartDelay: 0
        Duration: 0.2
    AutoStartLoopAnimation: 1
    LoadSelectedPresetAtRuntime: 0
    InstantAnimation: 0
    OnFinished:
      AnimatorEvents: []
      Effect:
        AutoSort: 1
        Behavior: 0
        CustomSortingOrder: 0
        SortingSteps: 1
        ParticleSystem: {fileID: 0}
        StopBehavior: 1
        CustomSortingLayer: Default
      Event:
        m_PersistentCalls:
          m_Calls: []
        m_TypeName: UnityEngine.Events.UnityEvent, UnityEngine.CoreModule, Version=0.0.0.0,
          Culture=neutral, PublicKeyToken=null
      GameEvents: []
      SoundData:
        SoundSource: 0
        DatabaseName: General
        SoundName: No Sound
        AudioClip: {fileID: 0}
        OutputAudioMixerGroup: {fileID: 0}
    OnStart:
      AnimatorEvents: []
      Effect:
        AutoSort: 1
        Behavior: 0
        CustomSortingOrder: 0
        SortingSteps: 1
        ParticleSystem: {fileID: 0}
        StopBehavior: 1
        CustomSortingLayer: Default
      Event:
        m_PersistentCalls:
          m_Calls: []
        m_TypeName: UnityEngine.Events.UnityEvent, UnityEngine.CoreModule, Version=0.0.0.0,
          Culture=neutral, PublicKeyToken=null
      GameEvents: []
      SoundData:
        SoundSource: 0
        DatabaseName: General
        SoundName: No Sound
        AudioClip: {fileID: 0}
        OutputAudioMixerGroup: {fileID: 0}
    PresetCategory: Uncategorized
    PresetName: Default
  ShowProgressor: {fileID: 0}
  TargetOrientation: 2
  UpdateHideProgressorOnShow: 1
  UpdateShowProgressorOnHide: 0
  UseCustomStartAnchoredPosition: 1
  ViewCategory: General
  ViewName: Unnamed
--- !u!95 &3967567501181032620
Animator:
  serializedVersion: 3
  m_ObjectHideFlags: 0
  m_CorrespondingSourceObject: {fileID: 0}
  m_PrefabInstance: {fileID: 0}
  m_PrefabAsset: {fileID: 0}
  m_GameObject: {fileID: 3967567501181032616}
  m_Enabled: 1
  m_Avatar: {fileID: 0}
  m_Controller: {fileID: 9100000, guid: 8158b1e55a988b446af9743db0dd9187, type: 2}
  m_CullingMode: 0
  m_UpdateMode: 0
  m_ApplyRootMotion: 0
  m_LinearVelocityBlending: 0
  m_WarningMessage: 
  m_HasTransformHierarchy: 1
  m_AllowConstantClipSamplingOptimization: 1
  m_KeepAnimatorControllerStateOnDisable: 0
--- !u!114 &3967567501181032621
MonoBehaviour:
  m_ObjectHideFlags: 0
  m_CorrespondingSourceObject: {fileID: 0}
  m_PrefabInstance: {fileID: 0}
  m_PrefabAsset: {fileID: 0}
  m_GameObject: {fileID: 3967567501181032616}
  m_Enabled: 1
  m_EditorHideFlags: 0
  m_Script: {fileID: 11500000, guid: 779d2338e8d61bc4f9e65969cd74fb0f, type: 3}
  m_Name: 
  m_EditorClassIdentifier: 
  Animator: {fileID: 3967567501181032620}
  ParameterName: Progress
  TargetProgress: 0
--- !u!114 &3967567501181032618
MonoBehaviour:
  m_ObjectHideFlags: 0
  m_CorrespondingSourceObject: {fileID: 0}
  m_PrefabInstance: {fileID: 0}
  m_PrefabAsset: {fileID: 0}
  m_GameObject: {fileID: 3967567501181032616}
  m_Enabled: 1
  m_EditorHideFlags: 0
  m_Script: {fileID: 11500000, guid: 0dd4fcd1a439fed4084f8b519848b636, type: 3}
  m_Name: 
  m_EditorClassIdentifier: 
  DebugMode: 0
  ProgressTargets:
  - {fileID: 3967567501181032621}
  AnimateValue: 0
  AnimationDuration: 0.5
  AnimationEase: 1
  AnimationIgnoresUnityTimescale: 1
  OnEnableResetValue: 1
  OnDisableResetValue: 0
  CustomResetValue: 0
  OnValueChanged:
    m_PersistentCalls:
      m_Calls: []
    m_TypeName: Doozy.Engine.Progress.ProgressEvent, Assembly-CSharp, Version=0.0.0.0,
      Culture=neutral, PublicKeyToken=null
  OnProgressChanged:
    m_PersistentCalls:
      m_Calls: []
    m_TypeName: Doozy.Engine.Progress.ProgressEvent, Assembly-CSharp, Version=0.0.0.0,
      Culture=neutral, PublicKeyToken=null
  OnInverseProgressChanged:
    m_PersistentCalls:
      m_Calls: []
    m_TypeName: Doozy.Engine.Progress.ProgressEvent, Assembly-CSharp, Version=0.0.0.0,
      Culture=neutral, PublicKeyToken=null
  m_minValue: 0
  m_maxValue: 1
  m_wholeNumbers: 0
  m_currentValue: 0
--- !u!225 &3967567502447286337
CanvasGroup:
  m_ObjectHideFlags: 0
  m_CorrespondingSourceObject: {fileID: 0}
  m_PrefabInstance: {fileID: 0}
  m_PrefabAsset: {fileID: 0}
  m_GameObject: {fileID: 2504396132369084220}
  m_Enabled: 1
  m_Alpha: 1
  m_Interactable: 1
  m_BlocksRaycasts: 1
  m_IgnoreParentGroups: 0
--- !u!1 &3967567502954929087
GameObject:
  m_ObjectHideFlags: 0
  m_CorrespondingSourceObject: {fileID: 0}
  m_PrefabInstance: {fileID: 0}
  m_PrefabAsset: {fileID: 0}
  serializedVersion: 6
  m_Component:
  - component: {fileID: 3967567502954929086}
  - component: {fileID: 3967567502954929073}
  m_Layer: 0
  m_Name: Buttons
  m_TagString: Untagged
  m_Icon: {fileID: 0}
  m_NavMeshLayer: 0
  m_StaticEditorFlags: 0
  m_IsActive: 1
--- !u!224 &3967567502954929086
RectTransform:
  m_ObjectHideFlags: 0
  m_CorrespondingSourceObject: {fileID: 0}
  m_PrefabInstance: {fileID: 0}
  m_PrefabAsset: {fileID: 0}
  m_GameObject: {fileID: 3967567502954929087}
  m_LocalRotation: {x: 0, y: 0, z: 0, w: 1}
  m_LocalPosition: {x: 0, y: 0, z: 0}
  m_LocalScale: {x: 1, y: 1, z: 1}
  m_Children:
  - {fileID: 1182830538621864376}
  - {fileID: 1182830539697051512}
  - {fileID: 1182830538564211974}
  m_Father: {fileID: 2605203728695086895}
  m_RootOrder: 0
  m_LocalEulerAnglesHint: {x: 0, y: 0, z: 0}
  m_AnchorMin: {x: 0, y: 0}
  m_AnchorMax: {x: 1, y: 1}
  m_AnchoredPosition: {x: 0, y: 0}
  m_SizeDelta: {x: 0, y: 0}
  m_Pivot: {x: 0.5, y: 0.5}
--- !u!114 &3967567502954929073
MonoBehaviour:
  m_ObjectHideFlags: 0
  m_CorrespondingSourceObject: {fileID: 0}
  m_PrefabInstance: {fileID: 0}
  m_PrefabAsset: {fileID: 0}
  m_GameObject: {fileID: 3967567502954929087}
  m_Enabled: 1
  m_EditorHideFlags: 0
  m_Script: {fileID: 1297475563, guid: f70555f144d8491a825f0804e09c671c, type: 3}
  m_Name: 
  m_EditorClassIdentifier: 
  m_Padding:
    m_Left: 0
    m_Right: 0
    m_Top: 0
    m_Bottom: 384
  m_ChildAlignment: 4
  m_Spacing: 48
  m_ChildForceExpandWidth: 0
  m_ChildForceExpandHeight: 0
  m_ChildControlWidth: 0
  m_ChildControlHeight: 0
  m_ChildScaleWidth: 0
  m_ChildScaleHeight: 0
--- !u!1001 &3967567501332979919
PrefabInstance:
  m_ObjectHideFlags: 0
  serializedVersion: 2
  m_Modification:
    m_TransformParent: {fileID: 3967567502954929086}
    m_Modifications:
    - target: {fileID: 8150698402079292519, guid: 61ca8f6835ae57b4ca7be8916448110b,
        type: 3}
      propertyPath: m_Name
      value: Button - 3 @ 256x64 - Text (2)
      objectReference: {fileID: 0}
    - target: {fileID: 2838925299218691529, guid: 61ca8f6835ae57b4ca7be8916448110b,
        type: 3}
      propertyPath: m_LocalPosition.x
      value: 0
      objectReference: {fileID: 0}
    - target: {fileID: 2838925299218691529, guid: 61ca8f6835ae57b4ca7be8916448110b,
        type: 3}
      propertyPath: m_LocalPosition.y
      value: 0
      objectReference: {fileID: 0}
    - target: {fileID: 2838925299218691529, guid: 61ca8f6835ae57b4ca7be8916448110b,
        type: 3}
      propertyPath: m_LocalPosition.z
      value: 0
      objectReference: {fileID: 0}
    - target: {fileID: 2838925299218691529, guid: 61ca8f6835ae57b4ca7be8916448110b,
        type: 3}
      propertyPath: m_LocalRotation.x
      value: 0
      objectReference: {fileID: 0}
    - target: {fileID: 2838925299218691529, guid: 61ca8f6835ae57b4ca7be8916448110b,
        type: 3}
      propertyPath: m_LocalRotation.y
      value: 0
      objectReference: {fileID: 0}
    - target: {fileID: 2838925299218691529, guid: 61ca8f6835ae57b4ca7be8916448110b,
        type: 3}
      propertyPath: m_LocalRotation.z
      value: 0
      objectReference: {fileID: 0}
    - target: {fileID: 2838925299218691529, guid: 61ca8f6835ae57b4ca7be8916448110b,
        type: 3}
      propertyPath: m_LocalRotation.w
      value: 1
      objectReference: {fileID: 0}
    - target: {fileID: 2838925299218691529, guid: 61ca8f6835ae57b4ca7be8916448110b,
        type: 3}
      propertyPath: m_RootOrder
      value: 2
      objectReference: {fileID: 0}
    - target: {fileID: 2838925299218691529, guid: 61ca8f6835ae57b4ca7be8916448110b,
        type: 3}
      propertyPath: m_LocalEulerAnglesHint.x
      value: 0
      objectReference: {fileID: 0}
    - target: {fileID: 2838925299218691529, guid: 61ca8f6835ae57b4ca7be8916448110b,
        type: 3}
      propertyPath: m_LocalEulerAnglesHint.y
      value: 0
      objectReference: {fileID: 0}
    - target: {fileID: 2838925299218691529, guid: 61ca8f6835ae57b4ca7be8916448110b,
        type: 3}
      propertyPath: m_LocalEulerAnglesHint.z
      value: 0
      objectReference: {fileID: 0}
    - target: {fileID: 2838925299218691529, guid: 61ca8f6835ae57b4ca7be8916448110b,
        type: 3}
      propertyPath: m_AnchoredPosition.x
      value: 0
      objectReference: {fileID: 0}
    - target: {fileID: 2838925299218691529, guid: 61ca8f6835ae57b4ca7be8916448110b,
        type: 3}
      propertyPath: m_AnchoredPosition.y
      value: 0
      objectReference: {fileID: 0}
    - target: {fileID: 2838925299218691529, guid: 61ca8f6835ae57b4ca7be8916448110b,
        type: 3}
      propertyPath: m_SizeDelta.x
      value: 256
      objectReference: {fileID: 0}
    - target: {fileID: 2838925299218691529, guid: 61ca8f6835ae57b4ca7be8916448110b,
        type: 3}
      propertyPath: m_SizeDelta.y
      value: 72
      objectReference: {fileID: 0}
    - target: {fileID: 2838925299218691529, guid: 61ca8f6835ae57b4ca7be8916448110b,
        type: 3}
      propertyPath: m_AnchorMin.x
      value: 0
      objectReference: {fileID: 0}
    - target: {fileID: 2838925299218691529, guid: 61ca8f6835ae57b4ca7be8916448110b,
        type: 3}
      propertyPath: m_AnchorMin.y
      value: 0
      objectReference: {fileID: 0}
    - target: {fileID: 2838925299218691529, guid: 61ca8f6835ae57b4ca7be8916448110b,
        type: 3}
      propertyPath: m_AnchorMax.x
      value: 0
      objectReference: {fileID: 0}
    - target: {fileID: 2838925299218691529, guid: 61ca8f6835ae57b4ca7be8916448110b,
        type: 3}
      propertyPath: m_AnchorMax.y
      value: 0
      objectReference: {fileID: 0}
    - target: {fileID: 2838925299218691529, guid: 61ca8f6835ae57b4ca7be8916448110b,
        type: 3}
      propertyPath: m_Pivot.x
      value: 0.5
      objectReference: {fileID: 0}
    - target: {fileID: 2838925299218691529, guid: 61ca8f6835ae57b4ca7be8916448110b,
        type: 3}
      propertyPath: m_Pivot.y
      value: 0.5
      objectReference: {fileID: 0}
    - target: {fileID: 1126184825086453493, guid: 61ca8f6835ae57b4ca7be8916448110b,
        type: 3}
      propertyPath: m_textInfo.characterCount
      value: 4
      objectReference: {fileID: 0}
    - target: {fileID: 1126184825086453493, guid: 61ca8f6835ae57b4ca7be8916448110b,
        type: 3}
      propertyPath: m_textInfo.spaceCount
      value: 0
      objectReference: {fileID: 0}
    - target: {fileID: 1126184825086453493, guid: 61ca8f6835ae57b4ca7be8916448110b,
        type: 3}
      propertyPath: m_textInfo.wordCount
      value: 1
      objectReference: {fileID: 0}
    - target: {fileID: 1126184825086453493, guid: 61ca8f6835ae57b4ca7be8916448110b,
        type: 3}
      propertyPath: m_textInfo.lineCount
      value: 1
      objectReference: {fileID: 0}
    - target: {fileID: 1126184825086453493, guid: 61ca8f6835ae57b4ca7be8916448110b,
        type: 3}
      propertyPath: m_textInfo.pageCount
      value: 1
      objectReference: {fileID: 0}
    - target: {fileID: 1126184825086453493, guid: 61ca8f6835ae57b4ca7be8916448110b,
        type: 3}
      propertyPath: m_text
      value: Hard
      objectReference: {fileID: 0}
    - target: {fileID: 1126184825086453493, guid: 61ca8f6835ae57b4ca7be8916448110b,
        type: 3}
      propertyPath: m_fontSize
      value: 44.55
      objectReference: {fileID: 0}
    m_RemovedComponents: []
  m_SourcePrefab: {fileID: 100100000, guid: 61ca8f6835ae57b4ca7be8916448110b, type: 3}
--- !u!224 &1182830538564211974 stripped
RectTransform:
  m_CorrespondingSourceObject: {fileID: 2838925299218691529, guid: 61ca8f6835ae57b4ca7be8916448110b,
    type: 3}
  m_PrefabInstance: {fileID: 3967567501332979919}
  m_PrefabAsset: {fileID: 0}
--- !u!1001 &3967567501405028191
PrefabInstance:
  m_ObjectHideFlags: 0
  serializedVersion: 2
  m_Modification:
    m_TransformParent: {fileID: 3967567501155123703}
    m_Modifications:
    - target: {fileID: 7308801437265773315, guid: 0155c5d9e6acf7b4c8c5812779c67095,
        type: 3}
      propertyPath: m_Name
      value: Button - 2 @ 96x96 - Rounded - Icon
      objectReference: {fileID: 0}
    - target: {fileID: 3681392156760361645, guid: 0155c5d9e6acf7b4c8c5812779c67095,
        type: 3}
      propertyPath: m_LocalPosition.x
      value: 0
      objectReference: {fileID: 0}
    - target: {fileID: 3681392156760361645, guid: 0155c5d9e6acf7b4c8c5812779c67095,
        type: 3}
      propertyPath: m_LocalPosition.y
      value: 0
      objectReference: {fileID: 0}
    - target: {fileID: 3681392156760361645, guid: 0155c5d9e6acf7b4c8c5812779c67095,
        type: 3}
      propertyPath: m_LocalPosition.z
      value: 0
      objectReference: {fileID: 0}
    - target: {fileID: 3681392156760361645, guid: 0155c5d9e6acf7b4c8c5812779c67095,
        type: 3}
      propertyPath: m_LocalRotation.x
      value: 0
      objectReference: {fileID: 0}
    - target: {fileID: 3681392156760361645, guid: 0155c5d9e6acf7b4c8c5812779c67095,
        type: 3}
      propertyPath: m_LocalRotation.y
      value: 0
      objectReference: {fileID: 0}
    - target: {fileID: 3681392156760361645, guid: 0155c5d9e6acf7b4c8c5812779c67095,
        type: 3}
      propertyPath: m_LocalRotation.z
      value: 0
      objectReference: {fileID: 0}
    - target: {fileID: 3681392156760361645, guid: 0155c5d9e6acf7b4c8c5812779c67095,
        type: 3}
      propertyPath: m_LocalRotation.w
      value: 1
      objectReference: {fileID: 0}
    - target: {fileID: 3681392156760361645, guid: 0155c5d9e6acf7b4c8c5812779c67095,
        type: 3}
      propertyPath: m_RootOrder
      value: 1
      objectReference: {fileID: 0}
    - target: {fileID: 3681392156760361645, guid: 0155c5d9e6acf7b4c8c5812779c67095,
        type: 3}
      propertyPath: m_LocalEulerAnglesHint.x
      value: 0
      objectReference: {fileID: 0}
    - target: {fileID: 3681392156760361645, guid: 0155c5d9e6acf7b4c8c5812779c67095,
        type: 3}
      propertyPath: m_LocalEulerAnglesHint.y
      value: 0
      objectReference: {fileID: 0}
    - target: {fileID: 3681392156760361645, guid: 0155c5d9e6acf7b4c8c5812779c67095,
        type: 3}
      propertyPath: m_LocalEulerAnglesHint.z
      value: 0
      objectReference: {fileID: 0}
    - target: {fileID: 3681392156760361645, guid: 0155c5d9e6acf7b4c8c5812779c67095,
        type: 3}
      propertyPath: m_AnchoredPosition.x
      value: 0
      objectReference: {fileID: 0}
    - target: {fileID: 3681392156760361645, guid: 0155c5d9e6acf7b4c8c5812779c67095,
        type: 3}
      propertyPath: m_AnchoredPosition.y
      value: 0
      objectReference: {fileID: 0}
    - target: {fileID: 3681392156760361645, guid: 0155c5d9e6acf7b4c8c5812779c67095,
        type: 3}
      propertyPath: m_SizeDelta.x
      value: 96
      objectReference: {fileID: 0}
    - target: {fileID: 3681392156760361645, guid: 0155c5d9e6acf7b4c8c5812779c67095,
        type: 3}
      propertyPath: m_SizeDelta.y
      value: 96
      objectReference: {fileID: 0}
    - target: {fileID: 3681392156760361645, guid: 0155c5d9e6acf7b4c8c5812779c67095,
        type: 3}
      propertyPath: m_AnchorMin.x
      value: 0
      objectReference: {fileID: 0}
    - target: {fileID: 3681392156760361645, guid: 0155c5d9e6acf7b4c8c5812779c67095,
        type: 3}
      propertyPath: m_AnchorMin.y
      value: 0
      objectReference: {fileID: 0}
    - target: {fileID: 3681392156760361645, guid: 0155c5d9e6acf7b4c8c5812779c67095,
        type: 3}
      propertyPath: m_AnchorMax.x
      value: 0
      objectReference: {fileID: 0}
    - target: {fileID: 3681392156760361645, guid: 0155c5d9e6acf7b4c8c5812779c67095,
        type: 3}
      propertyPath: m_AnchorMax.y
      value: 0
      objectReference: {fileID: 0}
    - target: {fileID: 3681392156760361645, guid: 0155c5d9e6acf7b4c8c5812779c67095,
        type: 3}
      propertyPath: m_Pivot.x
      value: 0.5
      objectReference: {fileID: 0}
    - target: {fileID: 3681392156760361645, guid: 0155c5d9e6acf7b4c8c5812779c67095,
        type: 3}
      propertyPath: m_Pivot.y
      value: 0.5
      objectReference: {fileID: 0}
    - target: {fileID: 7716803278375852789, guid: 0155c5d9e6acf7b4c8c5812779c67095,
        type: 3}
      propertyPath: m_Sprite
      value: 
      objectReference: {fileID: 21300000, guid: 05b9a8b98928e9e43ae18fa6b30d8bdb,
        type: 3}
    m_RemovedComponents: []
  m_SourcePrefab: {fileID: 100100000, guid: 0155c5d9e6acf7b4c8c5812779c67095, type: 3}
--- !u!224 &295354345816143346 stripped
RectTransform:
  m_CorrespondingSourceObject: {fileID: 3681392156760361645, guid: 0155c5d9e6acf7b4c8c5812779c67095,
    type: 3}
  m_PrefabInstance: {fileID: 3967567501405028191}
  m_PrefabAsset: {fileID: 0}
--- !u!1001 &3967567501407485041
PrefabInstance:
  m_ObjectHideFlags: 0
  serializedVersion: 2
  m_Modification:
    m_TransformParent: {fileID: 3967567502954929086}
    m_Modifications:
    - target: {fileID: 8150698402079292519, guid: 61ca8f6835ae57b4ca7be8916448110b,
        type: 3}
      propertyPath: m_Name
      value: Button - 3 @ 256x64 - Text
      objectReference: {fileID: 0}
    - target: {fileID: 2838925299218691529, guid: 61ca8f6835ae57b4ca7be8916448110b,
        type: 3}
      propertyPath: m_LocalPosition.x
      value: 0
      objectReference: {fileID: 0}
    - target: {fileID: 2838925299218691529, guid: 61ca8f6835ae57b4ca7be8916448110b,
        type: 3}
      propertyPath: m_LocalPosition.y
      value: 0
      objectReference: {fileID: 0}
    - target: {fileID: 2838925299218691529, guid: 61ca8f6835ae57b4ca7be8916448110b,
        type: 3}
      propertyPath: m_LocalPosition.z
      value: 0
      objectReference: {fileID: 0}
    - target: {fileID: 2838925299218691529, guid: 61ca8f6835ae57b4ca7be8916448110b,
        type: 3}
      propertyPath: m_LocalRotation.x
      value: 0
      objectReference: {fileID: 0}
    - target: {fileID: 2838925299218691529, guid: 61ca8f6835ae57b4ca7be8916448110b,
        type: 3}
      propertyPath: m_LocalRotation.y
      value: 0
      objectReference: {fileID: 0}
    - target: {fileID: 2838925299218691529, guid: 61ca8f6835ae57b4ca7be8916448110b,
        type: 3}
      propertyPath: m_LocalRotation.z
      value: 0
      objectReference: {fileID: 0}
    - target: {fileID: 2838925299218691529, guid: 61ca8f6835ae57b4ca7be8916448110b,
        type: 3}
      propertyPath: m_LocalRotation.w
      value: 1
      objectReference: {fileID: 0}
    - target: {fileID: 2838925299218691529, guid: 61ca8f6835ae57b4ca7be8916448110b,
        type: 3}
      propertyPath: m_RootOrder
      value: 0
      objectReference: {fileID: 0}
    - target: {fileID: 2838925299218691529, guid: 61ca8f6835ae57b4ca7be8916448110b,
        type: 3}
      propertyPath: m_LocalEulerAnglesHint.x
      value: 0
      objectReference: {fileID: 0}
    - target: {fileID: 2838925299218691529, guid: 61ca8f6835ae57b4ca7be8916448110b,
        type: 3}
      propertyPath: m_LocalEulerAnglesHint.y
      value: 0
      objectReference: {fileID: 0}
    - target: {fileID: 2838925299218691529, guid: 61ca8f6835ae57b4ca7be8916448110b,
        type: 3}
      propertyPath: m_LocalEulerAnglesHint.z
      value: 0
      objectReference: {fileID: 0}
    - target: {fileID: 2838925299218691529, guid: 61ca8f6835ae57b4ca7be8916448110b,
        type: 3}
      propertyPath: m_AnchoredPosition.x
      value: 0
      objectReference: {fileID: 0}
    - target: {fileID: 2838925299218691529, guid: 61ca8f6835ae57b4ca7be8916448110b,
        type: 3}
      propertyPath: m_AnchoredPosition.y
      value: 0
      objectReference: {fileID: 0}
    - target: {fileID: 2838925299218691529, guid: 61ca8f6835ae57b4ca7be8916448110b,
        type: 3}
      propertyPath: m_SizeDelta.x
      value: 256
      objectReference: {fileID: 0}
    - target: {fileID: 2838925299218691529, guid: 61ca8f6835ae57b4ca7be8916448110b,
        type: 3}
      propertyPath: m_SizeDelta.y
      value: 72
      objectReference: {fileID: 0}
    - target: {fileID: 2838925299218691529, guid: 61ca8f6835ae57b4ca7be8916448110b,
        type: 3}
      propertyPath: m_AnchorMin.x
      value: 0
      objectReference: {fileID: 0}
    - target: {fileID: 2838925299218691529, guid: 61ca8f6835ae57b4ca7be8916448110b,
        type: 3}
      propertyPath: m_AnchorMin.y
      value: 0
      objectReference: {fileID: 0}
    - target: {fileID: 2838925299218691529, guid: 61ca8f6835ae57b4ca7be8916448110b,
        type: 3}
      propertyPath: m_AnchorMax.x
      value: 0
      objectReference: {fileID: 0}
    - target: {fileID: 2838925299218691529, guid: 61ca8f6835ae57b4ca7be8916448110b,
        type: 3}
      propertyPath: m_AnchorMax.y
      value: 0
      objectReference: {fileID: 0}
    - target: {fileID: 2838925299218691529, guid: 61ca8f6835ae57b4ca7be8916448110b,
        type: 3}
      propertyPath: m_Pivot.x
      value: 0.5
      objectReference: {fileID: 0}
    - target: {fileID: 2838925299218691529, guid: 61ca8f6835ae57b4ca7be8916448110b,
        type: 3}
      propertyPath: m_Pivot.y
      value: 0.5
      objectReference: {fileID: 0}
    - target: {fileID: 1126184825086453493, guid: 61ca8f6835ae57b4ca7be8916448110b,
        type: 3}
      propertyPath: m_textInfo.characterCount
      value: 4
      objectReference: {fileID: 0}
    - target: {fileID: 1126184825086453493, guid: 61ca8f6835ae57b4ca7be8916448110b,
        type: 3}
      propertyPath: m_textInfo.spaceCount
      value: 0
      objectReference: {fileID: 0}
    - target: {fileID: 1126184825086453493, guid: 61ca8f6835ae57b4ca7be8916448110b,
        type: 3}
      propertyPath: m_textInfo.wordCount
      value: 1
      objectReference: {fileID: 0}
    - target: {fileID: 1126184825086453493, guid: 61ca8f6835ae57b4ca7be8916448110b,
        type: 3}
      propertyPath: m_textInfo.lineCount
      value: 1
      objectReference: {fileID: 0}
    - target: {fileID: 1126184825086453493, guid: 61ca8f6835ae57b4ca7be8916448110b,
        type: 3}
      propertyPath: m_textInfo.pageCount
      value: 1
      objectReference: {fileID: 0}
    - target: {fileID: 1126184825086453493, guid: 61ca8f6835ae57b4ca7be8916448110b,
        type: 3}
      propertyPath: m_text
      value: Easy
      objectReference: {fileID: 0}
    - target: {fileID: 1126184825086453493, guid: 61ca8f6835ae57b4ca7be8916448110b,
        type: 3}
      propertyPath: m_fontSize
      value: 44.55
      objectReference: {fileID: 0}
    m_RemovedComponents: []
  m_SourcePrefab: {fileID: 100100000, guid: 61ca8f6835ae57b4ca7be8916448110b, type: 3}
--- !u!224 &1182830538621864376 stripped
RectTransform:
  m_CorrespondingSourceObject: {fileID: 2838925299218691529, guid: 61ca8f6835ae57b4ca7be8916448110b,
    type: 3}
  m_PrefabInstance: {fileID: 3967567501407485041}
  m_PrefabAsset: {fileID: 0}
--- !u!1001 &3967567501464410632
PrefabInstance:
  m_ObjectHideFlags: 0
  serializedVersion: 2
  m_Modification:
    m_TransformParent: {fileID: 3967567501155123703}
    m_Modifications:
    - target: {fileID: 7785500526365207004, guid: 56320ca9acc81e84098ee6ddfd93793e,
        type: 3}
      propertyPath: m_Name
      value: Button - 2 @ 64x64 - Rounded - Icon
      objectReference: {fileID: 0}
    - target: {fileID: 4211813418335101042, guid: 56320ca9acc81e84098ee6ddfd93793e,
        type: 3}
      propertyPath: m_LocalPosition.x
      value: 0
      objectReference: {fileID: 0}
    - target: {fileID: 4211813418335101042, guid: 56320ca9acc81e84098ee6ddfd93793e,
        type: 3}
      propertyPath: m_LocalPosition.y
      value: 0
      objectReference: {fileID: 0}
    - target: {fileID: 4211813418335101042, guid: 56320ca9acc81e84098ee6ddfd93793e,
        type: 3}
      propertyPath: m_LocalPosition.z
      value: 0
      objectReference: {fileID: 0}
    - target: {fileID: 4211813418335101042, guid: 56320ca9acc81e84098ee6ddfd93793e,
        type: 3}
      propertyPath: m_LocalRotation.x
      value: 0
      objectReference: {fileID: 0}
    - target: {fileID: 4211813418335101042, guid: 56320ca9acc81e84098ee6ddfd93793e,
        type: 3}
      propertyPath: m_LocalRotation.y
      value: 0
      objectReference: {fileID: 0}
    - target: {fileID: 4211813418335101042, guid: 56320ca9acc81e84098ee6ddfd93793e,
        type: 3}
      propertyPath: m_LocalRotation.z
      value: 0
      objectReference: {fileID: 0}
    - target: {fileID: 4211813418335101042, guid: 56320ca9acc81e84098ee6ddfd93793e,
        type: 3}
      propertyPath: m_LocalRotation.w
      value: 1
      objectReference: {fileID: 0}
    - target: {fileID: 4211813418335101042, guid: 56320ca9acc81e84098ee6ddfd93793e,
        type: 3}
      propertyPath: m_RootOrder
      value: 0
      objectReference: {fileID: 0}
    - target: {fileID: 4211813418335101042, guid: 56320ca9acc81e84098ee6ddfd93793e,
        type: 3}
      propertyPath: m_LocalEulerAnglesHint.x
      value: 0
      objectReference: {fileID: 0}
    - target: {fileID: 4211813418335101042, guid: 56320ca9acc81e84098ee6ddfd93793e,
        type: 3}
      propertyPath: m_LocalEulerAnglesHint.y
      value: 0
      objectReference: {fileID: 0}
    - target: {fileID: 4211813418335101042, guid: 56320ca9acc81e84098ee6ddfd93793e,
        type: 3}
      propertyPath: m_LocalEulerAnglesHint.z
      value: 0
      objectReference: {fileID: 0}
    - target: {fileID: 4211813418335101042, guid: 56320ca9acc81e84098ee6ddfd93793e,
        type: 3}
      propertyPath: m_AnchoredPosition.x
      value: 0
      objectReference: {fileID: 0}
    - target: {fileID: 4211813418335101042, guid: 56320ca9acc81e84098ee6ddfd93793e,
        type: 3}
      propertyPath: m_AnchoredPosition.y
      value: 0
      objectReference: {fileID: 0}
    - target: {fileID: 4211813418335101042, guid: 56320ca9acc81e84098ee6ddfd93793e,
        type: 3}
      propertyPath: m_SizeDelta.x
      value: 64
      objectReference: {fileID: 0}
    - target: {fileID: 4211813418335101042, guid: 56320ca9acc81e84098ee6ddfd93793e,
        type: 3}
      propertyPath: m_SizeDelta.y
      value: 64
      objectReference: {fileID: 0}
    - target: {fileID: 4211813418335101042, guid: 56320ca9acc81e84098ee6ddfd93793e,
        type: 3}
      propertyPath: m_AnchorMin.x
      value: 0
      objectReference: {fileID: 0}
    - target: {fileID: 4211813418335101042, guid: 56320ca9acc81e84098ee6ddfd93793e,
        type: 3}
      propertyPath: m_AnchorMin.y
      value: 0
      objectReference: {fileID: 0}
    - target: {fileID: 4211813418335101042, guid: 56320ca9acc81e84098ee6ddfd93793e,
        type: 3}
      propertyPath: m_AnchorMax.x
      value: 0
      objectReference: {fileID: 0}
    - target: {fileID: 4211813418335101042, guid: 56320ca9acc81e84098ee6ddfd93793e,
        type: 3}
      propertyPath: m_AnchorMax.y
      value: 0
      objectReference: {fileID: 0}
    - target: {fileID: 4211813418335101042, guid: 56320ca9acc81e84098ee6ddfd93793e,
        type: 3}
      propertyPath: m_Pivot.x
      value: 0.5
      objectReference: {fileID: 0}
    - target: {fileID: 4211813418335101042, guid: 56320ca9acc81e84098ee6ddfd93793e,
        type: 3}
      propertyPath: m_Pivot.y
      value: 0.5
      objectReference: {fileID: 0}
    - target: {fileID: 7093772933384089642, guid: 56320ca9acc81e84098ee6ddfd93793e,
        type: 3}
      propertyPath: m_Sprite
      value: 
      objectReference: {fileID: 21300000, guid: d8496c20170d3b64294b37b35efe11d8,
        type: 3}
    m_RemovedComponents: []
  m_SourcePrefab: {fileID: 100100000, guid: 56320ca9acc81e84098ee6ddfd93793e, type: 3}
--- !u!224 &971929118503205498 stripped
RectTransform:
  m_CorrespondingSourceObject: {fileID: 4211813418335101042, guid: 56320ca9acc81e84098ee6ddfd93793e,
    type: 3}
  m_PrefabInstance: {fileID: 3967567501464410632}
  m_PrefabAsset: {fileID: 0}
--- !u!1001 &3967567501576416617
PrefabInstance:
  m_ObjectHideFlags: 0
  serializedVersion: 2
  m_Modification:
    m_TransformParent: {fileID: 3967567501181032619}
    m_Modifications:
    - target: {fileID: 7951284314820628693, guid: 59558fd9fca36f0499038462045dac88,
        type: 3}
      propertyPath: m_Name
      value: Card @ 512x512 - Square - Out
      objectReference: {fileID: 0}
    - target: {fileID: 6522964431085083634, guid: 59558fd9fca36f0499038462045dac88,
        type: 3}
      propertyPath: m_LocalPosition.x
      value: 0
      objectReference: {fileID: 0}
    - target: {fileID: 6522964431085083634, guid: 59558fd9fca36f0499038462045dac88,
        type: 3}
      propertyPath: m_LocalPosition.y
      value: 0
      objectReference: {fileID: 0}
    - target: {fileID: 6522964431085083634, guid: 59558fd9fca36f0499038462045dac88,
        type: 3}
      propertyPath: m_LocalPosition.z
      value: 0
      objectReference: {fileID: 0}
    - target: {fileID: 6522964431085083634, guid: 59558fd9fca36f0499038462045dac88,
        type: 3}
      propertyPath: m_LocalRotation.x
      value: 0
      objectReference: {fileID: 0}
    - target: {fileID: 6522964431085083634, guid: 59558fd9fca36f0499038462045dac88,
        type: 3}
      propertyPath: m_LocalRotation.y
      value: 0
      objectReference: {fileID: 0}
    - target: {fileID: 6522964431085083634, guid: 59558fd9fca36f0499038462045dac88,
        type: 3}
      propertyPath: m_LocalRotation.z
      value: 0
      objectReference: {fileID: 0}
    - target: {fileID: 6522964431085083634, guid: 59558fd9fca36f0499038462045dac88,
        type: 3}
      propertyPath: m_LocalRotation.w
      value: 1
      objectReference: {fileID: 0}
    - target: {fileID: 6522964431085083634, guid: 59558fd9fca36f0499038462045dac88,
        type: 3}
      propertyPath: m_RootOrder
      value: 0
      objectReference: {fileID: 0}
    - target: {fileID: 6522964431085083634, guid: 59558fd9fca36f0499038462045dac88,
        type: 3}
      propertyPath: m_LocalEulerAnglesHint.x
      value: 0
      objectReference: {fileID: 0}
    - target: {fileID: 6522964431085083634, guid: 59558fd9fca36f0499038462045dac88,
        type: 3}
      propertyPath: m_LocalEulerAnglesHint.y
      value: 0
      objectReference: {fileID: 0}
    - target: {fileID: 6522964431085083634, guid: 59558fd9fca36f0499038462045dac88,
        type: 3}
      propertyPath: m_LocalEulerAnglesHint.z
      value: 0
      objectReference: {fileID: 0}
    - target: {fileID: 6522964431085083634, guid: 59558fd9fca36f0499038462045dac88,
        type: 3}
      propertyPath: m_AnchoredPosition.x
      value: 0
      objectReference: {fileID: 0}
    - target: {fileID: 6522964431085083634, guid: 59558fd9fca36f0499038462045dac88,
        type: 3}
      propertyPath: m_AnchoredPosition.y
      value: 0
      objectReference: {fileID: 0}
    - target: {fileID: 6522964431085083634, guid: 59558fd9fca36f0499038462045dac88,
        type: 3}
      propertyPath: m_SizeDelta.x
      value: 0
      objectReference: {fileID: 0}
    - target: {fileID: 6522964431085083634, guid: 59558fd9fca36f0499038462045dac88,
        type: 3}
      propertyPath: m_SizeDelta.y
      value: 0
      objectReference: {fileID: 0}
    - target: {fileID: 6522964431085083634, guid: 59558fd9fca36f0499038462045dac88,
        type: 3}
      propertyPath: m_AnchorMin.x
      value: 0
      objectReference: {fileID: 0}
    - target: {fileID: 6522964431085083634, guid: 59558fd9fca36f0499038462045dac88,
        type: 3}
      propertyPath: m_AnchorMin.y
      value: 0
      objectReference: {fileID: 0}
    - target: {fileID: 6522964431085083634, guid: 59558fd9fca36f0499038462045dac88,
        type: 3}
      propertyPath: m_AnchorMax.x
      value: 1
      objectReference: {fileID: 0}
    - target: {fileID: 6522964431085083634, guid: 59558fd9fca36f0499038462045dac88,
        type: 3}
      propertyPath: m_AnchorMax.y
      value: 1
      objectReference: {fileID: 0}
    - target: {fileID: 6522964431085083634, guid: 59558fd9fca36f0499038462045dac88,
        type: 3}
      propertyPath: m_Pivot.x
      value: 0.5
      objectReference: {fileID: 0}
    - target: {fileID: 6522964431085083634, guid: 59558fd9fca36f0499038462045dac88,
        type: 3}
      propertyPath: m_Pivot.y
      value: 0.5
      objectReference: {fileID: 0}
    - target: {fileID: 6522964431085083634, guid: 59558fd9fca36f0499038462045dac88,
        type: 3}
      propertyPath: m_LocalScale.x
      value: 1
      objectReference: {fileID: 0}
    - target: {fileID: 6522964431085083634, guid: 59558fd9fca36f0499038462045dac88,
        type: 3}
      propertyPath: m_LocalScale.y
      value: 1
      objectReference: {fileID: 0}
    - target: {fileID: 1380400986261840454, guid: 59558fd9fca36f0499038462045dac88,
        type: 3}
      propertyPath: m_LocalScale.x
      value: 1
      objectReference: {fileID: 0}
    - target: {fileID: 1380400986261840454, guid: 59558fd9fca36f0499038462045dac88,
        type: 3}
      propertyPath: m_LocalScale.y
      value: 1
      objectReference: {fileID: 0}
    - target: {fileID: 1380400986261840454, guid: 59558fd9fca36f0499038462045dac88,
        type: 3}
      propertyPath: m_AnchoredPosition.y
      value: 0
      objectReference: {fileID: 0}
    - target: {fileID: 1380400986261840454, guid: 59558fd9fca36f0499038462045dac88,
        type: 3}
      propertyPath: m_SizeDelta.y
      value: 0
      objectReference: {fileID: 0}
    m_RemovedComponents: []
  m_SourcePrefab: {fileID: 100100000, guid: 59558fd9fca36f0499038462045dac88, type: 3}
--- !u!224 &2605203728695086895 stripped
RectTransform:
  m_CorrespondingSourceObject: {fileID: 1380400986261840454, guid: 59558fd9fca36f0499038462045dac88,
    type: 3}
  m_PrefabInstance: {fileID: 3967567501576416617}
  m_PrefabAsset: {fileID: 0}
--- !u!1 &2504396132369084220 stripped
GameObject:
  m_CorrespondingSourceObject: {fileID: 1571411694781989461, guid: 59558fd9fca36f0499038462045dac88,
    type: 3}
  m_PrefabInstance: {fileID: 3967567501576416617}
  m_PrefabAsset: {fileID: 0}
--- !u!224 &7893006982683899547 stripped
RectTransform:
  m_CorrespondingSourceObject: {fileID: 6522964431085083634, guid: 59558fd9fca36f0499038462045dac88,
    type: 3}
  m_PrefabInstance: {fileID: 3967567501576416617}
  m_PrefabAsset: {fileID: 0}
--- !u!1001 &3967567501686726821
PrefabInstance:
  m_ObjectHideFlags: 0
  serializedVersion: 2
  m_Modification:
    m_TransformParent: {fileID: 3967567501155123703}
    m_Modifications:
    - target: {fileID: 7785500526365207004, guid: 56320ca9acc81e84098ee6ddfd93793e,
        type: 3}
      propertyPath: m_Name
      value: Button - 2 @ 64x64 - Rounded - Icon (1)
      objectReference: {fileID: 0}
    - target: {fileID: 4211813418335101042, guid: 56320ca9acc81e84098ee6ddfd93793e,
        type: 3}
      propertyPath: m_LocalPosition.x
      value: 0
      objectReference: {fileID: 0}
    - target: {fileID: 4211813418335101042, guid: 56320ca9acc81e84098ee6ddfd93793e,
        type: 3}
      propertyPath: m_LocalPosition.y
      value: 0
      objectReference: {fileID: 0}
    - target: {fileID: 4211813418335101042, guid: 56320ca9acc81e84098ee6ddfd93793e,
        type: 3}
      propertyPath: m_LocalPosition.z
      value: 0
      objectReference: {fileID: 0}
    - target: {fileID: 4211813418335101042, guid: 56320ca9acc81e84098ee6ddfd93793e,
        type: 3}
      propertyPath: m_LocalRotation.x
      value: 0
      objectReference: {fileID: 0}
    - target: {fileID: 4211813418335101042, guid: 56320ca9acc81e84098ee6ddfd93793e,
        type: 3}
      propertyPath: m_LocalRotation.y
      value: 0
      objectReference: {fileID: 0}
    - target: {fileID: 4211813418335101042, guid: 56320ca9acc81e84098ee6ddfd93793e,
        type: 3}
      propertyPath: m_LocalRotation.z
      value: 0
      objectReference: {fileID: 0}
    - target: {fileID: 4211813418335101042, guid: 56320ca9acc81e84098ee6ddfd93793e,
        type: 3}
      propertyPath: m_LocalRotation.w
      value: 1
      objectReference: {fileID: 0}
    - target: {fileID: 4211813418335101042, guid: 56320ca9acc81e84098ee6ddfd93793e,
        type: 3}
      propertyPath: m_RootOrder
      value: 2
      objectReference: {fileID: 0}
    - target: {fileID: 4211813418335101042, guid: 56320ca9acc81e84098ee6ddfd93793e,
        type: 3}
      propertyPath: m_LocalEulerAnglesHint.x
      value: 0
      objectReference: {fileID: 0}
    - target: {fileID: 4211813418335101042, guid: 56320ca9acc81e84098ee6ddfd93793e,
        type: 3}
      propertyPath: m_LocalEulerAnglesHint.y
      value: 0
      objectReference: {fileID: 0}
    - target: {fileID: 4211813418335101042, guid: 56320ca9acc81e84098ee6ddfd93793e,
        type: 3}
      propertyPath: m_LocalEulerAnglesHint.z
      value: 0
      objectReference: {fileID: 0}
    - target: {fileID: 4211813418335101042, guid: 56320ca9acc81e84098ee6ddfd93793e,
        type: 3}
      propertyPath: m_AnchoredPosition.x
      value: 0
      objectReference: {fileID: 0}
    - target: {fileID: 4211813418335101042, guid: 56320ca9acc81e84098ee6ddfd93793e,
        type: 3}
      propertyPath: m_AnchoredPosition.y
      value: 0
      objectReference: {fileID: 0}
    - target: {fileID: 4211813418335101042, guid: 56320ca9acc81e84098ee6ddfd93793e,
        type: 3}
      propertyPath: m_SizeDelta.x
      value: 64
      objectReference: {fileID: 0}
    - target: {fileID: 4211813418335101042, guid: 56320ca9acc81e84098ee6ddfd93793e,
        type: 3}
      propertyPath: m_SizeDelta.y
      value: 64
      objectReference: {fileID: 0}
    - target: {fileID: 4211813418335101042, guid: 56320ca9acc81e84098ee6ddfd93793e,
        type: 3}
      propertyPath: m_AnchorMin.x
      value: 0
      objectReference: {fileID: 0}
    - target: {fileID: 4211813418335101042, guid: 56320ca9acc81e84098ee6ddfd93793e,
        type: 3}
      propertyPath: m_AnchorMin.y
      value: 0
      objectReference: {fileID: 0}
    - target: {fileID: 4211813418335101042, guid: 56320ca9acc81e84098ee6ddfd93793e,
        type: 3}
      propertyPath: m_AnchorMax.x
      value: 0
      objectReference: {fileID: 0}
    - target: {fileID: 4211813418335101042, guid: 56320ca9acc81e84098ee6ddfd93793e,
        type: 3}
      propertyPath: m_AnchorMax.y
      value: 0
      objectReference: {fileID: 0}
    - target: {fileID: 4211813418335101042, guid: 56320ca9acc81e84098ee6ddfd93793e,
        type: 3}
      propertyPath: m_Pivot.x
      value: 0.5
      objectReference: {fileID: 0}
    - target: {fileID: 4211813418335101042, guid: 56320ca9acc81e84098ee6ddfd93793e,
        type: 3}
      propertyPath: m_Pivot.y
      value: 0.5
      objectReference: {fileID: 0}
    - target: {fileID: 7093772933384089642, guid: 56320ca9acc81e84098ee6ddfd93793e,
        type: 3}
      propertyPath: m_Sprite
      value: 
      objectReference: {fileID: 21300000, guid: 484a533cc74a05c4086087355aa3ffbb,
        type: 3}
    m_RemovedComponents: []
  m_SourcePrefab: {fileID: 100100000, guid: 56320ca9acc81e84098ee6ddfd93793e, type: 3}
--- !u!224 &971929117651730647 stripped
RectTransform:
  m_CorrespondingSourceObject: {fileID: 4211813418335101042, guid: 56320ca9acc81e84098ee6ddfd93793e,
    type: 3}
  m_PrefabInstance: {fileID: 3967567501686726821}
  m_PrefabAsset: {fileID: 0}
--- !u!1001 &3967567502346559925
PrefabInstance:
  m_ObjectHideFlags: 0
  serializedVersion: 2
  m_Modification:
    m_TransformParent: {fileID: 3967567501181032619}
    m_Modifications:
    - target: {fileID: 4000782495552459586, guid: 03567e31e051a2d429ffbc68dd07fd27,
        type: 3}
      propertyPath: m_Name
      value: Card @ 256x256 - Rounded - Out
      objectReference: {fileID: 0}
    - target: {fileID: 241849782103971941, guid: 03567e31e051a2d429ffbc68dd07fd27,
        type: 3}
      propertyPath: m_LocalPosition.x
      value: 0
      objectReference: {fileID: 0}
    - target: {fileID: 241849782103971941, guid: 03567e31e051a2d429ffbc68dd07fd27,
        type: 3}
      propertyPath: m_LocalPosition.y
      value: 0
      objectReference: {fileID: 0}
    - target: {fileID: 241849782103971941, guid: 03567e31e051a2d429ffbc68dd07fd27,
        type: 3}
      propertyPath: m_LocalPosition.z
      value: 0
      objectReference: {fileID: 0}
    - target: {fileID: 241849782103971941, guid: 03567e31e051a2d429ffbc68dd07fd27,
        type: 3}
      propertyPath: m_LocalRotation.x
      value: 0
      objectReference: {fileID: 0}
    - target: {fileID: 241849782103971941, guid: 03567e31e051a2d429ffbc68dd07fd27,
        type: 3}
      propertyPath: m_LocalRotation.y
      value: 0
      objectReference: {fileID: 0}
    - target: {fileID: 241849782103971941, guid: 03567e31e051a2d429ffbc68dd07fd27,
        type: 3}
      propertyPath: m_LocalRotation.z
      value: 0
      objectReference: {fileID: 0}
    - target: {fileID: 241849782103971941, guid: 03567e31e051a2d429ffbc68dd07fd27,
        type: 3}
      propertyPath: m_LocalRotation.w
      value: 1
      objectReference: {fileID: 0}
    - target: {fileID: 241849782103971941, guid: 03567e31e051a2d429ffbc68dd07fd27,
        type: 3}
      propertyPath: m_RootOrder
      value: 1
      objectReference: {fileID: 0}
    - target: {fileID: 241849782103971941, guid: 03567e31e051a2d429ffbc68dd07fd27,
        type: 3}
      propertyPath: m_LocalEulerAnglesHint.x
      value: 0
      objectReference: {fileID: 0}
    - target: {fileID: 241849782103971941, guid: 03567e31e051a2d429ffbc68dd07fd27,
        type: 3}
      propertyPath: m_LocalEulerAnglesHint.y
      value: 0
      objectReference: {fileID: 0}
    - target: {fileID: 241849782103971941, guid: 03567e31e051a2d429ffbc68dd07fd27,
        type: 3}
      propertyPath: m_LocalEulerAnglesHint.z
      value: 0
      objectReference: {fileID: 0}
    - target: {fileID: 241849782103971941, guid: 03567e31e051a2d429ffbc68dd07fd27,
        type: 3}
      propertyPath: m_AnchoredPosition.x
      value: 0
      objectReference: {fileID: 0}
    - target: {fileID: 241849782103971941, guid: 03567e31e051a2d429ffbc68dd07fd27,
        type: 3}
      propertyPath: m_AnchoredPosition.y
      value: 32
      objectReference: {fileID: 0}
    - target: {fileID: 241849782103971941, guid: 03567e31e051a2d429ffbc68dd07fd27,
        type: 3}
      propertyPath: m_SizeDelta.x
      value: -64
      objectReference: {fileID: 0}
    - target: {fileID: 241849782103971941, guid: 03567e31e051a2d429ffbc68dd07fd27,
        type: 3}
      propertyPath: m_SizeDelta.y
      value: 256
      objectReference: {fileID: 0}
    - target: {fileID: 241849782103971941, guid: 03567e31e051a2d429ffbc68dd07fd27,
        type: 3}
      propertyPath: m_AnchorMin.x
      value: 0
      objectReference: {fileID: 0}
    - target: {fileID: 241849782103971941, guid: 03567e31e051a2d429ffbc68dd07fd27,
        type: 3}
      propertyPath: m_AnchorMin.y
      value: 0
      objectReference: {fileID: 0}
    - target: {fileID: 241849782103971941, guid: 03567e31e051a2d429ffbc68dd07fd27,
        type: 3}
      propertyPath: m_AnchorMax.x
      value: 1
      objectReference: {fileID: 0}
    - target: {fileID: 241849782103971941, guid: 03567e31e051a2d429ffbc68dd07fd27,
        type: 3}
      propertyPath: m_AnchorMax.y
      value: 0
      objectReference: {fileID: 0}
    - target: {fileID: 241849782103971941, guid: 03567e31e051a2d429ffbc68dd07fd27,
        type: 3}
      propertyPath: m_Pivot.x
      value: 0.5
      objectReference: {fileID: 0}
    - target: {fileID: 241849782103971941, guid: 03567e31e051a2d429ffbc68dd07fd27,
        type: 3}
      propertyPath: m_Pivot.y
      value: 0
      objectReference: {fileID: 0}
    - target: {fileID: 241849782103971941, guid: 03567e31e051a2d429ffbc68dd07fd27,
        type: 3}
      propertyPath: m_LocalScale.x
      value: 1
      objectReference: {fileID: 0}
    - target: {fileID: 241849782103971941, guid: 03567e31e051a2d429ffbc68dd07fd27,
        type: 3}
      propertyPath: m_LocalScale.y
      value: 1
      objectReference: {fileID: 0}
    - target: {fileID: 2926349818553633084, guid: 03567e31e051a2d429ffbc68dd07fd27,
        type: 3}
      propertyPath: m_LocalScale.x
      value: 1
      objectReference: {fileID: 0}
    - target: {fileID: 2926349818553633084, guid: 03567e31e051a2d429ffbc68dd07fd27,
        type: 3}
      propertyPath: m_LocalScale.y
      value: 1
      objectReference: {fileID: 0}
    - target: {fileID: 2926349818553633084, guid: 03567e31e051a2d429ffbc68dd07fd27,
        type: 3}
      propertyPath: m_AnchoredPosition.y
      value: 0
      objectReference: {fileID: 0}
    m_RemovedComponents: []
  m_SourcePrefab: {fileID: 100100000, guid: 03567e31e051a2d429ffbc68dd07fd27, type: 3}
--- !u!224 &3770806494150277584 stripped
RectTransform:
  m_CorrespondingSourceObject: {fileID: 241849782103971941, guid: 03567e31e051a2d429ffbc68dd07fd27,
    type: 3}
  m_PrefabInstance: {fileID: 3967567502346559925}
  m_PrefabAsset: {fileID: 0}
--- !u!1 &3680446860849015946 stripped
GameObject:
  m_CorrespondingSourceObject: {fileID: 296168252103150911, guid: 03567e31e051a2d429ffbc68dd07fd27,
    type: 3}
  m_PrefabInstance: {fileID: 3967567502346559925}
  m_PrefabAsset: {fileID: 0}
--- !u!224 &2275402172963956873 stripped
RectTransform:
  m_CorrespondingSourceObject: {fileID: 2926349818553633084, guid: 03567e31e051a2d429ffbc68dd07fd27,
    type: 3}
  m_PrefabInstance: {fileID: 3967567502346559925}
  m_PrefabAsset: {fileID: 0}
--- !u!1001 &3967567502483710641
PrefabInstance:
  m_ObjectHideFlags: 0
  serializedVersion: 2
  m_Modification:
    m_TransformParent: {fileID: 3967567502954929086}
    m_Modifications:
    - target: {fileID: 8150698402079292519, guid: 61ca8f6835ae57b4ca7be8916448110b,
        type: 3}
      propertyPath: m_Name
      value: Button - 3 @ 256x64 - Text (1)
      objectReference: {fileID: 0}
    - target: {fileID: 2838925299218691529, guid: 61ca8f6835ae57b4ca7be8916448110b,
        type: 3}
      propertyPath: m_LocalPosition.x
      value: 0
      objectReference: {fileID: 0}
    - target: {fileID: 2838925299218691529, guid: 61ca8f6835ae57b4ca7be8916448110b,
        type: 3}
      propertyPath: m_LocalPosition.y
      value: 0
      objectReference: {fileID: 0}
    - target: {fileID: 2838925299218691529, guid: 61ca8f6835ae57b4ca7be8916448110b,
        type: 3}
      propertyPath: m_LocalPosition.z
      value: 0
      objectReference: {fileID: 0}
    - target: {fileID: 2838925299218691529, guid: 61ca8f6835ae57b4ca7be8916448110b,
        type: 3}
      propertyPath: m_LocalRotation.x
      value: 0
      objectReference: {fileID: 0}
    - target: {fileID: 2838925299218691529, guid: 61ca8f6835ae57b4ca7be8916448110b,
        type: 3}
      propertyPath: m_LocalRotation.y
      value: 0
      objectReference: {fileID: 0}
    - target: {fileID: 2838925299218691529, guid: 61ca8f6835ae57b4ca7be8916448110b,
        type: 3}
      propertyPath: m_LocalRotation.z
      value: 0
      objectReference: {fileID: 0}
    - target: {fileID: 2838925299218691529, guid: 61ca8f6835ae57b4ca7be8916448110b,
        type: 3}
      propertyPath: m_LocalRotation.w
      value: 1
      objectReference: {fileID: 0}
    - target: {fileID: 2838925299218691529, guid: 61ca8f6835ae57b4ca7be8916448110b,
        type: 3}
      propertyPath: m_RootOrder
      value: 1
      objectReference: {fileID: 0}
    - target: {fileID: 2838925299218691529, guid: 61ca8f6835ae57b4ca7be8916448110b,
        type: 3}
      propertyPath: m_LocalEulerAnglesHint.x
      value: 0
      objectReference: {fileID: 0}
    - target: {fileID: 2838925299218691529, guid: 61ca8f6835ae57b4ca7be8916448110b,
        type: 3}
      propertyPath: m_LocalEulerAnglesHint.y
      value: 0
      objectReference: {fileID: 0}
    - target: {fileID: 2838925299218691529, guid: 61ca8f6835ae57b4ca7be8916448110b,
        type: 3}
      propertyPath: m_LocalEulerAnglesHint.z
      value: 0
      objectReference: {fileID: 0}
    - target: {fileID: 2838925299218691529, guid: 61ca8f6835ae57b4ca7be8916448110b,
        type: 3}
      propertyPath: m_AnchoredPosition.x
      value: 0
      objectReference: {fileID: 0}
    - target: {fileID: 2838925299218691529, guid: 61ca8f6835ae57b4ca7be8916448110b,
        type: 3}
      propertyPath: m_AnchoredPosition.y
      value: 0
      objectReference: {fileID: 0}
    - target: {fileID: 2838925299218691529, guid: 61ca8f6835ae57b4ca7be8916448110b,
        type: 3}
      propertyPath: m_SizeDelta.x
      value: 256
      objectReference: {fileID: 0}
    - target: {fileID: 2838925299218691529, guid: 61ca8f6835ae57b4ca7be8916448110b,
        type: 3}
      propertyPath: m_SizeDelta.y
      value: 72
      objectReference: {fileID: 0}
    - target: {fileID: 2838925299218691529, guid: 61ca8f6835ae57b4ca7be8916448110b,
        type: 3}
      propertyPath: m_AnchorMin.x
      value: 0
      objectReference: {fileID: 0}
    - target: {fileID: 2838925299218691529, guid: 61ca8f6835ae57b4ca7be8916448110b,
        type: 3}
      propertyPath: m_AnchorMin.y
      value: 0
      objectReference: {fileID: 0}
    - target: {fileID: 2838925299218691529, guid: 61ca8f6835ae57b4ca7be8916448110b,
        type: 3}
      propertyPath: m_AnchorMax.x
      value: 0
      objectReference: {fileID: 0}
    - target: {fileID: 2838925299218691529, guid: 61ca8f6835ae57b4ca7be8916448110b,
        type: 3}
      propertyPath: m_AnchorMax.y
      value: 0
      objectReference: {fileID: 0}
    - target: {fileID: 2838925299218691529, guid: 61ca8f6835ae57b4ca7be8916448110b,
        type: 3}
      propertyPath: m_Pivot.x
      value: 0.5
      objectReference: {fileID: 0}
    - target: {fileID: 2838925299218691529, guid: 61ca8f6835ae57b4ca7be8916448110b,
        type: 3}
      propertyPath: m_Pivot.y
      value: 0.5
      objectReference: {fileID: 0}
    - target: {fileID: 1126184825086453493, guid: 61ca8f6835ae57b4ca7be8916448110b,
        type: 3}
      propertyPath: m_textInfo.characterCount
      value: 6
      objectReference: {fileID: 0}
    - target: {fileID: 1126184825086453493, guid: 61ca8f6835ae57b4ca7be8916448110b,
        type: 3}
      propertyPath: m_textInfo.spaceCount
      value: 0
      objectReference: {fileID: 0}
    - target: {fileID: 1126184825086453493, guid: 61ca8f6835ae57b4ca7be8916448110b,
        type: 3}
      propertyPath: m_textInfo.wordCount
      value: 1
      objectReference: {fileID: 0}
    - target: {fileID: 1126184825086453493, guid: 61ca8f6835ae57b4ca7be8916448110b,
        type: 3}
      propertyPath: m_textInfo.lineCount
      value: 1
      objectReference: {fileID: 0}
    - target: {fileID: 1126184825086453493, guid: 61ca8f6835ae57b4ca7be8916448110b,
        type: 3}
      propertyPath: m_textInfo.pageCount
      value: 1
      objectReference: {fileID: 0}
    - target: {fileID: 1126184825086453493, guid: 61ca8f6835ae57b4ca7be8916448110b,
        type: 3}
      propertyPath: m_text
      value: Medium
      objectReference: {fileID: 0}
    - target: {fileID: 1126184825086453493, guid: 61ca8f6835ae57b4ca7be8916448110b,
        type: 3}
      propertyPath: m_fontSize
      value: 44.55
      objectReference: {fileID: 0}
    m_RemovedComponents: []
  m_SourcePrefab: {fileID: 100100000, guid: 61ca8f6835ae57b4ca7be8916448110b, type: 3}
--- !u!224 &1182830539697051512 stripped
RectTransform:
  m_CorrespondingSourceObject: {fileID: 2838925299218691529, guid: 61ca8f6835ae57b4ca7be8916448110b,
    type: 3}
  m_PrefabInstance: {fileID: 3967567502483710641}
  m_PrefabAsset: {fileID: 0}
