%YAML 1.1
%TAG !u! tag:unity3d.com,2011:
--- !u!114 &11400000
MonoBehaviour:
  m_ObjectHideFlags: 0
  m_CorrespondingSourceObject: {fileID: 0}
  m_PrefabInstance: {fileID: 0}
  m_PrefabAsset: {fileID: 0}
  m_GameObject: {fileID: 0}
  m_Enabled: 1
  m_EditorHideFlags: 0
  m_Script: {fileID: 11500000, guid: 2a151aae416b497c9eaea8aa5ac1c555, type: 3}
  m_Name: Theme_General
  m_EditorClassIdentifier: 
  m_themeName: General
  SerializedGuid: 51c2124157cac147a2ade344948daa2c
  m_activeVariant:
    m_variantName: Default
    SerializedGuid: 851446f20bdc594aaa0b9b7591339dcc
    Colors:
    - m_color: {r: 1, g: 1, b: 1, a: 1}
      SerializedGuid: 050fba0365371d4f9225e349ad98c831
    - m_color: {r: 1, g: 1, b: 1, a: 1}
      SerializedGuid: a1b61c12d6a4084c967eb32ef97b55a5
    - m_color: {r: 1, g: 1, b: 1, a: 1}
      SerializedGuid: 199ab96375f98443a7b7ffa30d63e3ad
    - m_color: {r: 1, g: 1, b: 1, a: 1}
      SerializedGuid: 45e8be7b25768945a823460731755148
    - m_color: {r: 1, g: 1, b: 1, a: 1}
      SerializedGuid: b1d313b655aff64d89a0c730ea3e2330
    - m_color: {r: 1, g: 1, b: 1, a: 1}
      SerializedGuid: e27b0d9e7ded6f4c845bb4a8c15333b3
    Sprites: []
    Textures: []
    Fonts: []
    FontAssets: []
  ColorLabels:
  - m_label: Primary
    SerializedGuid: 050fba0365371d4f9225e349ad98c831
  - m_label: Secondary
    SerializedGuid: a1b61c12d6a4084c967eb32ef97b55a5
  - m_label: Accent 1
    SerializedGuid: 199ab96375f98443a7b7ffa30d63e3ad
  - m_label: Accent 2
    SerializedGuid: 45e8be7b25768945a823460731755148
  - m_label: Text
    SerializedGuid: b1d313b655aff64d89a0c730ea3e2330
  - m_label: Disabled
    SerializedGuid: e27b0d9e7ded6f4c845bb4a8c15333b3
  SpriteLabels: []
  TextureLabels: []
  FontLabels: []
  FontAssetLabels: []
  VariantsNames:
  - Default
  Variants:
  - m_variantName: Default
    SerializedGuid: 851446f20bdc594aaa0b9b7591339dcc
    Colors:
    - m_color: {r: 1, g: 1, b: 1, a: 1}
      SerializedGuid: 050fba0365371d4f9225e349ad98c831
    - m_color: {r: 1, g: 1, b: 1, a: 1}
      SerializedGuid: a1b61c12d6a4084c967eb32ef97b55a5
    - m_color: {r: 1, g: 1, b: 1, a: 1}
      SerializedGuid: 199ab96375f98443a7b7ffa30d63e3ad
    - m_color: {r: 1, g: 1, b: 1, a: 1}
      SerializedGuid: 45e8be7b25768945a823460731755148
    - m_color: {r: 1, g: 1, b: 1, a: 1}
      SerializedGuid: b1d313b655aff64d89a0c730ea3e2330
    - m_color: {r: 1, g: 1, b: 1, a: 1}
      SerializedGuid: e27b0d9e7ded6f4c845bb4a8c15333b3
    Sprites: []
    Textures: []
    Fonts: []
    FontAssets: []
